{
"E_Enemy":
{
	"components":
	{
		"Transform":
		{
		},
		"Sprite":
		{
			"spriteName": "square.png",
			"renderLevel": 1000,
			"scale": 1.0
		},
		"Physics":
		{
			"bodyType": "static",
			"density": 100,
			"depth": 4,
			"shape":
			{
        "type": "circle",
				"radius": 1.0
			}
		},
		"Noxed::EditorBlueprint":
		{
			"extends": "Enemy",
			"controlled": false,
			"components":
			{
				"Platformer::LinePatrol":
				{
					"args":
					{
						"line":
						{
							"type": "vector",
							"value": {"x": 3, "y": 0},
							"label": "Patrol Line"
						},
						"speed":
						{
							"type": "float",
							"value": 2,
							"min": 1,
							"max": 8,
							"label": "Patrol Speed"
						},
						"threshold":
						{
							"type": "float",
							"value": 0.1,
							"min": 0.1,
							"max": 1.0,
							"label": "Turn Threshold"
						}
					}
				}
			}
		}
	}
}
}
