{
  "Player": {
    "name": "Player",
    "components": {
      "Transform": {
      },
      "Sprite": {
        "spriteName": "circle.png",
        "renderLevel": 1000,
        "scale": 0.9 
      },
      "Physics": {
        "bodyType": "dynamic",
        "density": 1,
        "friction": 0,
        "depth": 4,
        "shape": {
          "type": "circle",
          "radius": 0.45,
          "lowerBound": {"x": -0.45, "y": -0.45},
          "upperBound": {"x": 0.45, "y": 0.45}
        },
        "linearDamping": 0.0,
        "angularDamping": 0.0,
        "fixedRotation": true
      },
      "Noxed::FollowCamera":
      {
        "move": true,
        "rotate": false
      },
      "Platformer::MovementController":
      {
        "moveAction": "move",
        "moveForce": 130,
        "moveMaxSpeed": 6.0,
        "jumpAction": "jump",
        "jumpForce": 650,
        "linearGravity": {"x": 0.0, "y": -40}
      },
      "Platformer::Collider":
      {
        "tag": "player",
        "local": true
      },
      "Platformer::PlayerController":
      {
        "fallLimit": -48
      }
    }
  }
}
