{
"PowerUp":
{
	"components":
	{
		"Sprite":
		{
			"spriteName": "square.png",
			"renderLevel": 1000,
			"scale": 0.5
		},
		"Physics":
		{
			"bodyType": "dynamic",
			"density": 5,
			"depth": 4,
			"friction": 0,
			"shape":
			{
        "type": "box",
        "lowerBound": {"x": -0.25, "y": -0.25},
        "upperBound": {"x": 0.25, "y": 0.25}
			}
		},
		"Platformer::Collider":
		{
			"tag": "powerup",
			"collidee": true
		}
	}
}
}
