{
"Player":
{
	"name": "Player",
	"components":
	{
		"Transform":
		{
		},
		"Sprite":
		{
			"spriteName": "circle.png",
			"renderLevel": 1000,
            "scale": 1
		},
		"Physics":
		{
			"bodyType": "dynamic",
			"density": 100,
			"depth": 4,
			"shape":
			{
                "type": "circle",
                "radius": 0.5
			},
			"linearDamping": 10.0,
			"angularDamping": 10.0
		},
		"Light":
		{
			"lights":
			{
				"main":
				{
					"color": {"r": 1.0, "g": 1.0, "b": 0.2},
					"range": 3.0,
					"alphaFallOff": 1.0,
					"castShadows": true
				}
			}
		},
		"2dDirectionControl": // This enables the Actor to move in a vector based direction.
		{
			"movementForce": 5000.0,
			"relativeToRotation": true
		},
		"2dRotationControl": // This enables the Actor torotate with a torque.
		{
			"rotationForce": 1000.0
		}
	}
}
}
