{"frames": [

{
	"filename": "circle.png",
	"frame": {"x":2,"y":2,"w":64,"h":64},
	"rotated": false,
	"trimmed": false,
	"spriteSourceSize": {"x":0,"y":0,"w":64,"h":64},
	"sourceSize": {"w":64,"h":64},
	"pivot": {"x":0.5,"y":0.5}
},
{
	"filename": "square.png",
	"frame": {"x":68,"y":2,"w":64,"h":64},
	"rotated": false,
	"trimmed": false,
	"spriteSourceSize": {"x":0,"y":0,"w":64,"h":64},
	"sourceSize": {"w":64,"h":64},
	"pivot": {"x":0.5,"y":0.5}
}],
"meta": {
	"app": "http://www.codeandweb.com/texturepacker",
	"version": "1.0",
	"image": "atlases/testatlas/.png/testatlas.png",
	"format": "RGBA8888",
	"size": {"w":134,"h":68},
	"scale": "1",
	"smartupdate": "$TexturePacker:SmartUpdate:b342b01b70c5fdf6321285ca05e5a996:7b46c32660986f882376a80ed5001ccf:b8dc7266e9604903cdeaba260e352feb$"
}
}
