{
  "E_PowerUp": {
    "components": {
      "Sprite": {
        "spriteName": "square.png",
        "renderLevel": 1000,
        "scale": 1
      },
      "Physics": {
        "bodyType": "static",
        "density": 100,
        "depth": 4,
        "shape": {
          "type": "box",
          "lowerBound": {
            "x": -0.5,
            "y": -0.5
          },
          "upperBound": {
            "x": 0.5,
            "y": 0.5
          }
        }
      },
      "Transform": {
      },
      "Noxed::EditorBlueprint": {
        "extends": "PowerUp",
        "controlled": false
      }
    }
  }
}