{
  "E_TileMap": {
    "name": "TileMap",
    "components":
    {
      "Transform":
      {
      },
      "Noxed::TileMap":
      {
        "tileset": "", // No name means it'll wait for one
        "name": "MyMap",
        "blockWidth": 16,
        "offset": {"x": 0.5, "y": 0.5},
        "smart": true,
        "dumbDown": true,
        "editorMap": true,
        "blocks": []
      },
      "Noxed::EditorBlueprint":
      {
        "controlled": true,
        "occupant": false,
        "components":
        {
          "Noxed::TileMap":
          {
            "useEditorComponent": true
          }
        }
      },
      "Noxed::TileMapObjectSaver":
      {
        "objects":
        {
          "wall:square": "InvisibleWall.Square"
        }
      }
    }
  }
}
